…
``` r
flights %>% 
  drop_na() %>% 
  mutate(Real_hour = dep_time%/%100,na.rm=TRUE) %>% 
  group_by(Real_hour) %>%
  summarise(Mean_delay=mean(arr_delay,na.rm=TRUE),Median_delay=median(arr_delay,na.rm=TRUE),Var_delay=var(arr_delay,na.rm=TRUE))
```

    ## # A tibble: 25 × 4
    ##    Real_hour Mean_delay Median_delay Var_delay
    ##        <dbl>      <dbl>        <dbl>     <dbl>
    ##  1         0     121.            111    10094.
    ##  2         1     196.            177     9667.
    ##  3         2     225.            209     6971.
    ##  4         3     288.            267    10539.
    ##  5         4      -8.88          -10      121.
    ##  6         5      -8.85          -10      205.
    ##  7         6      -7.09           -9      546.
    ##  8         7      -7.35          -11      680.
    ##  9         8      -4.03           -8      653.
    ## 10         9      -1.06           -7      954.
    ## # … with 15 more rows
…
