…
airline <- flights %>%
  select(year:day, hour, origin, dest) %>%
  left_join(
    airport_locations,
    by = c("origin" = "faa")
  ) %>%
  left_join(
    airport_locations,
    by = c("dest" = "faa")
  )

airline
```

    ## # A tibble: 336,776 × 10
    ##     year month   day  hour origin dest  lat.x lon.x lat.y lon.y
    ##    <int> <int> <int> <dbl> <chr>  <chr> <dbl> <dbl> <dbl> <dbl>
    ##  1  2013     1     1     5 EWR    IAH    40.7 -74.2  30.0 -95.3
    ##  2  2013     1     1     5 LGA    IAH    40.8 -73.9  30.0 -95.3
    ##  3  2013     1     1     5 JFK    MIA    40.6 -73.8  25.8 -80.3
    ##  4  2013     1     1     5 JFK    BQN    40.6 -73.8  NA    NA  
    ##  5  2013     1     1     6 LGA    ATL    40.8 -73.9  33.6 -84.4
    ##  6  2013     1     1     5 EWR    ORD    40.7 -74.2  42.0 -87.9
    ##  7  2013     1     1     6 EWR    FLL    40.7 -74.2  26.1 -80.2
    ##  8  2013     1     1     6 LGA    IAD    40.8 -73.9  38.9 -77.5
    ##  9  2013     1     1     6 JFK    MCO    40.6 -73.8  28.4 -81.3
    ## 10  2013     1     1     6 LGA    ORD    40.8 -73.9  42.0 -87.9
    ## # … with 336,766 more rows
…
``` r
airline
```

    ## # A tibble: 336,776 × 10
    ##     year month   day  hour origin dest  lat.x lon.x lat.y lon.y
    ##    <int> <int> <int> <dbl> <chr>  <chr> <dbl> <dbl> <dbl> <dbl>
    ##  1  2013     1     1     5 EWR    IAH    40.7 -74.2  30.0 -95.3
    ##  2  2013     1     1     5 LGA    IAH    40.8 -73.9  30.0 -95.3
    ##  3  2013     1     1     5 JFK    MIA    40.6 -73.8  25.8 -80.3
    ##  4  2013     1     1     5 JFK    BQN    40.6 -73.8  NA    NA  
    ##  5  2013     1     1     6 LGA    ATL    40.8 -73.9  33.6 -84.4
    ##  6  2013     1     1     5 EWR    ORD    40.7 -74.2  42.0 -87.9
    ##  7  2013     1     1     6 EWR    FLL    40.7 -74.2  26.1 -80.2
    ##  8  2013     1     1     6 LGA    IAD    40.8 -73.9  38.9 -77.5
    ##  9  2013     1     1     6 JFK    MCO    40.6 -73.8  28.4 -81.3
    ## 10  2013     1     1     6 LGA    ORD    40.8 -73.9  42.0 -87.9
    ## # … with 336,766 more rows
…
