…
Currently dep_time and sched_dep_time are convenient to look at, but
hard to compute with because they’re not really continuous numbers.
Convert them to a more convenient representation of number of minutes
since midnight.

``` r
flights %>% 
  mutate(new_dep_time=dep_time%%100+dep_time%/%100*60,
                   new_sched_dep_time=sched_dep_time%%100+sched_dep_time%/%100*60) %>% 
  summarise(new_dep_time,
            new_sched_dep_time)
```

    ## # A tibble: 336,776 × 2
    ##    new_dep_time new_sched_dep_time
    ##           <dbl>              <dbl>
    ##  1          317                315
    ##  2          333                329
    ##  3          342                340
    ##  4          344                345
    ##  5          354                360
    ##  6          354                358
    ##  7          355                360
    ##  8          357                360
    ##  9          357                360
    ## 10          358                360
    ## # … with 336,766 more rows
…
